%YAML 1.1
%TAG !u! tag:unity3d.com,2011:
--- !u!78 &1
TagManager:
  serializedVersion: 2
  tags:
  - Terrain
  - NPC
  - UI_TIME
  - CANVAS
  - Enemy
  - Brush_Red
  - Brush_Blue
  - UI_POINTS_R
  - UI_POINTS_B
  - UI_NPC_COUNT
  - UI_DATA
  - UI_PAUSE
  - UI_WIN
  - UI_DRAW
  - UI_LOSE
  - StatsCtl
  - UI_MainMenu
  - UI_Options
  layers:
  - Default
  - TransparentFX
  - Ignore Raycast
  - 
  - Water
  - UI
  - 
  - 
  - MINIMAP
  - 
  - 
  - 
  - 
  - 
  - 
  - 
  - 
  - 
  - 
  - 
  - 
  - 
  - 
  - 
  - 
  - 
  - 
  - 
  - 
  - 
  - 
  - 
  m_SortingLayers:
  - name: Default
    uniqueID: 0
    locked: 0
